../Core/Src/main.c:69:5:__io_putchar	16	static
../Core/Src/main.c:75:5:_write	32	static
../Core/Src/main.c:89:6:HAL_ADC_ConvCpltCallback	16	static
../Core/Src/main.c:100:5:main	120	static
../Core/Src/main.c:205:6:SystemClock_Config	96	static
../Core/Src/main.c:255:13:MX_ADC1_Init	48	static
../Core/Src/main.c:322:13:MX_CRC_Init	8	static
../Core/Src/main.c:353:13:MX_TIM4_Init	40	static
../Core/Src/main.c:398:13:MX_USART2_UART_Init	8	static
../Core/Src/main.c:433:13:MX_GPIO_Init	48	static
../Core/Src/main.c:479:6:Error_Handler	4	static,ignoring_inline_asm
